LDA	00
LDB	68
LDCH	50
LDF	70
LDL	08
LDT	01
LDX	02
LDS	03
TIX	2C
TIXR	B8
COMPR	A0
COMP	28
COMF	88
STA	23
STB	78
STCH	18
STF	80
STL	14
STS	7C
STSW	E8
STT	84
STX	10
ADD	18
ADDR	81
ADDF	58
SUB     1C
SUBR	94
SUBF	5C
DIV	24
DIVF	64
DIVR	9C
MUL	20
MULF	60
MULR	98
J	3C
JEQ	30
JLT	38
JGT	34
JSUB    48
RSUB    4C
RD	05
WD	DC
TD	E0
AND	40
OR	44
CLEAR	B4
SHIFTR	A8
SHIFTL	A4
