FIB	START	2000
-	LDA	ID2
-	STA	NUM
-	LDX	NO
-	LDT	NUM
-	LDS	NO
-	LDA	NO1
RE1	:	-
-	STA	TEM
-	ADDR	S,A	
-	LDS	TEM
-	TIXR	T
-	JLT	RE1
NO3	WORD	1
NO2	WORD	2
NO1	WORD	1
NO	WORD	0
TEM	RESW	1
NUM	RESW	1
PE  	RESW	1
ID2	WORD	4
RE1	RESW	1
-	END	-





























































